------------------------------------------------------------------------
r1141607 | scripty | 2010-06-23 14:08:18 +1200 (Wed, 23 Jun 2010) | 1 line

SVN_SILENT made messages (.desktop file)
------------------------------------------------------------------------
